10199 14739745 1000000000 e20b22e5367ab6408610bbe98b9b2202 /gnu/store/lscf3a52z0773pr8g15l1z15vrgq1wbl-zig-0.8.0/lib/zig/std/special/build_runner.zig
1954 25836024 1627595353078906340 ed2b571ea4d3cd33c7c16930d42cc097 /home/nefix/dev/zig-grpc-test/build.zig
5588 14739983 1000000000 b28e8846a1fb551a569b56fcf123a093 /gnu/store/lscf3a52z0773pr8g15l1z15vrgq1wbl-zig-0.8.0/lib/zig/std/std.zig
23635 14739284 1000000000 00fbb8fea25ef05eeba646e26bb20cb6 /gnu/store/lscf3a52z0773pr8g15l1z15vrgq1wbl-zig-0.8.0/lib/zig/std/builtin.zig
18282 14739981 1000000000 c0d058ca884fd934a4f43772515ed826 /gnu/store/lscf3a52z0773pr8g15l1z15vrgq1wbl-zig-0.8.0/lib/zig/std/start.zig
58105 14739984 1000000000 c469f387be311dd300783652c63aa46e /gnu/store/lscf3a52z0773pr8g15l1z15vrgq1wbl-zig-0.8.0/lib/zig/std/target.zig
85319 14740002 1000000000 0a2500be811fa3aa250ce61f7121590b /gnu/store/lscf3a52z0773pr8g15l1z15vrgq1wbl-zig-0.8.0/lib/zig/std/target/x86.zig
55049 14739431 1000000000 10a7f7ce243a9b00eec13412ab43f638 /gnu/store/lscf3a52z0773pr8g15l1z15vrgq1wbl-zig-0.8.0/lib/zig/std/math.zig
47037 14739567 1000000000 1d2192661909773f951eface449f4c97 /gnu/store/lscf3a52z0773pr8g15l1z15vrgq1wbl-zig-0.8.0/lib/zig/std/meta.zig
76171 14739359 1000000000 e42b2515d2bd2ca1a758f94674ca1b4f /gnu/store/lscf3a52z0773pr8g15l1z15vrgq1wbl-zig-0.8.0/lib/zig/std/debug.zig
21862 14739258 1000000000 fe636797f93571eff9bd3716b49c5f29 /gnu/store/lscf3a52z0773pr8g15l1z15vrgq1wbl-zig-0.8.0/lib/zig/std/Thread.zig
8975 14739261 1000000000 d843d8b9f9bfbb8596793076b7f0832c /gnu/store/lscf3a52z0773pr8g15l1z15vrgq1wbl-zig-0.8.0/lib/zig/std/Thread/Mutex.zig
6937 14739404 1000000000 13d91209e7be79b263b6bdba75c5d7bd /gnu/store/lscf3a52z0773pr8g15l1z15vrgq1wbl-zig-0.8.0/lib/zig/std/io.zig
111311 14739383 1000000000 dd71f5dee8eb8d5b7b14ba6c7d2974b6 /gnu/store/lscf3a52z0773pr8g15l1z15vrgq1wbl-zig-0.8.0/lib/zig/std/fs.zig
34154 14739384 1000000000 06743bf9e2e200fec8f39a1d3596ba9f /gnu/store/lscf3a52z0773pr8g15l1z15vrgq1wbl-zig-0.8.0/lib/zig/std/fs/file.zig
244183 14739574 1000000000 376873f3bf0daeab57c8cd5fd15e26d1 /gnu/store/lscf3a52z0773pr8g15l1z15vrgq1wbl-zig-0.8.0/lib/zig/std/os.zig
1777 14739575 1000000000 8d2a34ac655098558374af64bfaa8252 /gnu/store/lscf3a52z0773pr8g15l1z15vrgq1wbl-zig-0.8.0/lib/zig/std/os/bits.zig
63142 14739590 1000000000 05b6c7c8e765f6c25409fbcd00de2852 /gnu/store/lscf3a52z0773pr8g15l1z15vrgq1wbl-zig-0.8.0/lib/zig/std/os/bits/linux.zig
8916 14739598 1000000000 e9a3f40802d95a6a4b68af3fcfd14cd8 /gnu/store/lscf3a52z0773pr8g15l1z15vrgq1wbl-zig-0.8.0/lib/zig/std/os/bits/linux/netlink.zig
6793 14739601 1000000000 a2a3eb5025cf366e1f9966fbd4b73635 /gnu/store/lscf3a52z0773pr8g15l1z15vrgq1wbl-zig-0.8.0/lib/zig/std/os/bits/linux/prctl.zig
1569 14739603 1000000000 762bf41249b51deb66386a42d8c2719f /gnu/store/lscf3a52z0773pr8g15l1z15vrgq1wbl-zig-0.8.0/lib/zig/std/os/bits/linux/securebits.zig
13413 14739605 1000000000 b0c4c5f4b2828077f67ffc53afd1aadd /gnu/store/lscf3a52z0773pr8g15l1z15vrgq1wbl-zig-0.8.0/lib/zig/std/os/bits/linux/x86_64.zig
8548 14739593 1000000000 fa7bade920f4bed7f523840a46fbc2a7 /gnu/store/lscf3a52z0773pr8g15l1z15vrgq1wbl-zig-0.8.0/lib/zig/std/os/bits/linux/errno-generic.zig
3733 14739423 1000000000 21a631d05e989504b4ff3183a5d4268d /gnu/store/lscf3a52z0773pr8g15l1z15vrgq1wbl-zig-0.8.0/lib/zig/std/io/writer.zig
14029 14739265 1000000000 5c2df756d3cc7d77fa5807d126492426 /gnu/store/lscf3a52z0773pr8g15l1z15vrgq1wbl-zig-0.8.0/lib/zig/std/Thread/StaticResetEvent.zig
43314 14739363 1000000000 fa699e8243a100850c5d5ef6739f9f0e /gnu/store/lscf3a52z0773pr8g15l1z15vrgq1wbl-zig-0.8.0/lib/zig/std/elf.zig
51687 14739615 1000000000 06d1ad4438be4dce459518640c5c0cec /gnu/store/lscf3a52z0773pr8g15l1z15vrgq1wbl-zig-0.8.0/lib/zig/std/os/linux.zig
58894 14739624 1000000000 693949a4b33972d972d761d11c735c16 /gnu/store/lscf3a52z0773pr8g15l1z15vrgq1wbl-zig-0.8.0/lib/zig/std/os/linux/io_uring.zig
3110 14739635 1000000000 64788af658af91aafa790c4fd9d2f68c /gnu/store/lscf3a52z0773pr8g15l1z15vrgq1wbl-zig-0.8.0/lib/zig/std/os/linux/x86_64.zig
14677 14739362 1000000000 53c4bacaf2f06eacd48d428a2cbee72b /gnu/store/lscf3a52z0773pr8g15l1z15vrgq1wbl-zig-0.8.0/lib/zig/std/dynamic_library.zig
13621 14739633 1000000000 6768b7411b814161e8130498164dc03e /gnu/store/lscf3a52z0773pr8g15l1z15vrgq1wbl-zig-0.8.0/lib/zig/std/os/linux/tls.zig
91553 14739377 1000000000 0648e3ef57db1de8ef790fbfc69786d8 /gnu/store/lscf3a52z0773pr8g15l1z15vrgq1wbl-zig-0.8.0/lib/zig/std/fmt.zig
102629 14739510 1000000000 2bfc10edfa28658b29ace236d4fb1b89 /gnu/store/lscf3a52z0773pr8g15l1z15vrgq1wbl-zig-0.8.0/lib/zig/std/mem.zig
20541 14739511 1000000000 df4b1840f51e60f5bdbc1dbedc7e092a /gnu/store/lscf3a52z0773pr8g15l1z15vrgq1wbl-zig-0.8.0/lib/zig/std/mem/Allocator.zig
76846 14739399 1000000000 5210277241f1e4cd122eb48a312cb18d /gnu/store/lscf3a52z0773pr8g15l1z15vrgq1wbl-zig-0.8.0/lib/zig/std/hash_map.zig
36045 14739360 1000000000 bf40545c6085dd9a95de9c3549569c30 /gnu/store/lscf3a52z0773pr8g15l1z15vrgq1wbl-zig-0.8.0/lib/zig/std/dwarf.zig
23094 14739361 1000000000 881b06f481df15d27be7b371a34f40bd /gnu/store/lscf3a52z0773pr8g15l1z15vrgq1wbl-zig-0.8.0/lib/zig/std/dwarf_bits.zig
49868 14739267 1000000000 579c8d5bf9a8971a2e20fad1dbd9adce /gnu/store/lscf3a52z0773pr8g15l1z15vrgq1wbl-zig-0.8.0/lib/zig/std/array_list.zig
5865 14739415 1000000000 e4969eefc8d5e0daa48c3e49f4d7bf71 /gnu/store/lscf3a52z0773pr8g15l1z15vrgq1wbl-zig-0.8.0/lib/zig/std/io/fixed_buffer_stream.zig
14707 14739419 1000000000 ef35513a84751410d70fd0001a426f7c /gnu/store/lscf3a52z0773pr8g15l1z15vrgq1wbl-zig-0.8.0/lib/zig/std/io/reader.zig
1393 14739420 1000000000 ecc3a07871d2612484a07b8c2229ca48 /gnu/store/lscf3a52z0773pr8g15l1z15vrgq1wbl-zig-0.8.0/lib/zig/std/io/seekable_stream.zig
15171 14739427 1000000000 4a3fd55af64b0c2a9867644f4800cdaa /gnu/store/lscf3a52z0773pr8g15l1z15vrgq1wbl-zig-0.8.0/lib/zig/std/leb128.zig
48533 14739386 1000000000 7be360cbd3f5fd156ac043f8c36629e6 /gnu/store/lscf3a52z0773pr8g15l1z15vrgq1wbl-zig-0.8.0/lib/zig/std/fs/path.zig
19148 14739569 1000000000 5bd88f6706c5aaac347999ed9d72a5ab /gnu/store/lscf3a52z0773pr8g15l1z15vrgq1wbl-zig-0.8.0/lib/zig/std/meta/trait.zig
30378 14740007 1000000000 903fea5054a61a51eb818b59fca3831c /gnu/store/lscf3a52z0773pr8g15l1z15vrgq1wbl-zig-0.8.0/lib/zig/std/unicode.zig
1590 14739390 1000000000 0470f80d54ee5336adc3025569e3cdb7 /gnu/store/lscf3a52z0773pr8g15l1z15vrgq1wbl-zig-0.8.0/lib/zig/std/hash.zig
10488 14739398 1000000000 6b6234564c92515584e44ecd5dbac933 /gnu/store/lscf3a52z0773pr8g15l1z15vrgq1wbl-zig-0.8.0/lib/zig/std/hash/wyhash.zig
44450 14739400 1000000000 61ecf1dfc1bbc08a4fc62b44be4f2fcc /gnu/store/lscf3a52z0773pr8g15l1z15vrgq1wbl-zig-0.8.0/lib/zig/std/heap.zig
4819 14739401 1000000000 d4a704c39f8aa1e9295ed986271ba38a /gnu/store/lscf3a52z0773pr8g15l1z15vrgq1wbl-zig-0.8.0/lib/zig/std/heap/arena_allocator.zig
13726 14739428 1000000000 a3dea3a6bff91acfde117f119fa1e87f /gnu/store/lscf3a52z0773pr8g15l1z15vrgq1wbl-zig-0.8.0/lib/zig/std/linked_list.zig
31051 14739721 1000000000 15bd964d421fbcc1ff424707f8e3757c /gnu/store/lscf3a52z0773pr8g15l1z15vrgq1wbl-zig-0.8.0/lib/zig/std/process.zig
9567 14739262 1000000000 3ddcb10ecc92045bf775fa1dc83f4b43 /gnu/store/lscf3a52z0773pr8g15l1z15vrgq1wbl-zig-0.8.0/lib/zig/std/Thread/ResetEvent.zig
1229 14739365 1000000000 71465cfdef84e6cacd7bd5313fa61382 /gnu/store/lscf3a52z0773pr8g15l1z15vrgq1wbl-zig-0.8.0/lib/zig/std/event.zig
65139 14739372 1000000000 52ce51e5a0a76235f1b09712e220e861 /gnu/store/lscf3a52z0773pr8g15l1z15vrgq1wbl-zig-0.8.0/lib/zig/std/event/loop.zig
3073 14739269 1000000000 59b72a5b308f4e42174c4489f08de7bd /gnu/store/lscf3a52z0773pr8g15l1z15vrgq1wbl-zig-0.8.0/lib/zig/std/atomic.zig
12428 14739271 1000000000 852f2786036bc86d716a3e0dd8f95b19 /gnu/store/lscf3a52z0773pr8g15l1z15vrgq1wbl-zig-0.8.0/lib/zig/std/atomic/queue.zig
11169 14740005 1000000000 3f1bc5a75fa18752b21011adf71fa35e /gnu/store/lscf3a52z0773pr8g15l1z15vrgq1wbl-zig-0.8.0/lib/zig/std/time.zig
7627 14739259 1000000000 d90d890f52a10090385569db9b0a8cab /gnu/store/lscf3a52z0773pr8g15l1z15vrgq1wbl-zig-0.8.0/lib/zig/std/Thread/AutoResetEvent.zig
6056 14739272 1000000000 5c7d3bd9a8fa7c1a4f2f56ee043cab0b /gnu/store/lscf3a52z0773pr8g15l1z15vrgq1wbl-zig-0.8.0/lib/zig/std/atomic/stack.zig
120952 14739277 1000000000 3f6632bbf6fe726e6f05b5c2f4d1e20f /gnu/store/lscf3a52z0773pr8g15l1z15vrgq1wbl-zig-0.8.0/lib/zig/std/build.zig
4561 14739275 1000000000 0dd9c5886c7fa0772707e305b16bbf6c /gnu/store/lscf3a52z0773pr8g15l1z15vrgq1wbl-zig-0.8.0/lib/zig/std/buf_map.zig
10409 14739429 1000000000 82d9b7a5ac066966cc76ef90b7ffc386 /gnu/store/lscf3a52z0773pr8g15l1z15vrgq1wbl-zig-0.8.0/lib/zig/std/log.zig
5608 14739312 1000000000 2f1a5bac4637551d8ce3f4bbb2300838 /gnu/store/lscf3a52z0773pr8g15l1z15vrgq1wbl-zig-0.8.0/lib/zig/std/comptime_string_map.zig
64833 14739729 1000000000 e27cf192adb2ae5100812f4f06e1ede3 /gnu/store/lscf3a52z0773pr8g15l1z15vrgq1wbl-zig-0.8.0/lib/zig/std/sort.zig
1954 25836024 1627595353078906340 ed2b571ea4d3cd33c7c16930d42cc097 /home/nefix/dev/zig-grpc-test/build.zig
11932 14740129 1000000000 23bfe479966bfd4939464b677cd883d3 /gnu/store/lscf3a52z0773pr8g15l1z15vrgq1wbl-zig-0.8.0/lib/zig/std/zig.zig
35135 14740143 1000000000 b87547e882afe6358266d97d762d904a /gnu/store/lscf3a52z0773pr8g15l1z15vrgq1wbl-zig-0.8.0/lib/zig/std/zig/cross_target.zig
3300 14739276 1000000000 204488e56add1c373f8685fcbe32b775 /gnu/store/lscf3a52z0773pr8g15l1z15vrgq1wbl-zig-0.8.0/lib/zig/std/buf_set.zig
4017 14739283 1000000000 d7dec07dc18bfa6adf11788bae6f2877 /gnu/store/lscf3a52z0773pr8g15l1z15vrgq1wbl-zig-0.8.0/lib/zig/std/build/write_file.zig
3966 14739282 1000000000 cd9db149d394a10dbcae7df7177c9058 /gnu/store/lscf3a52z0773pr8g15l1z15vrgq1wbl-zig-0.8.0/lib/zig/std/build/translate_c.zig
11795 14739281 1000000000 2116667db5ba9699fb3b53e225e2bce7 /gnu/store/lscf3a52z0773pr8g15l1z15vrgq1wbl-zig-0.8.0/lib/zig/std/build/run.zig
39144 14739301 1000000000 be874b3c249c3652c306a9f4e1bfd27d /gnu/store/lscf3a52z0773pr8g15l1z15vrgq1wbl-zig-0.8.0/lib/zig/std/child_process.zig
74645 14739700 1000000000 717000abe23b92090492673b63e9b21a /gnu/store/lscf3a52z0773pr8g15l1z15vrgq1wbl-zig-0.8.0/lib/zig/std/os/windows.zig
52182 14739703 1000000000 4c9986516439dfc2c85364d7b6180cbb /gnu/store/lscf3a52z0773pr8g15l1z15vrgq1wbl-zig-0.8.0/lib/zig/std/os/windows/bits.zig
131685 14739715 1000000000 bc3fa898ee7db34328396faef199063e /gnu/store/lscf3a52z0773pr8g15l1z15vrgq1wbl-zig-0.8.0/lib/zig/std/os/windows/win32error.zig
237754 14739708 1000000000 767e8595d34a54317caabb7b29ad507f /gnu/store/lscf3a52z0773pr8g15l1z15vrgq1wbl-zig-0.8.0/lib/zig/std/os/windows/ntstatus.zig
13580 14739268 1000000000 ca3af0da8451188ea77e19faf0571de4 /gnu/store/lscf3a52z0773pr8g15l1z15vrgq1wbl-zig-0.8.0/lib/zig/std/ascii.zig
1441 14739413 1000000000 737dc49108b3538faddceb39a2a4b700 /gnu/store/lscf3a52z0773pr8g15l1z15vrgq1wbl-zig-0.8.0/lib/zig/std/io/counting_writer.zig
65799 14739987 1000000000 cd20e3e508d9ff4ddd4ded31a44af8dc /gnu/store/lscf3a52z0773pr8g15l1z15vrgq1wbl-zig-0.8.0/lib/zig/std/target/arm.zig
58397 14739985 1000000000 62b23528dbd2ce9a3476a0ca5413ff44 /gnu/store/lscf3a52z0773pr8g15l1z15vrgq1wbl-zig-0.8.0/lib/zig/std/target/aarch64.zig
58727 14739988 1000000000 cf5ace68a24e0f293ce61578fa8b9d2c /gnu/store/lscf3a52z0773pr8g15l1z15vrgq1wbl-zig-0.8.0/lib/zig/std/target/avr.zig
1949 14739989 1000000000 b241fccbc30410cdd79227b5b142c84d /gnu/store/lscf3a52z0773pr8g15l1z15vrgq1wbl-zig-0.8.0/lib/zig/std/target/bpf.zig
10740 14739990 1000000000 9bb6bf9aa2feeeb7c25c6082f1dec928 /gnu/store/lscf3a52z0773pr8g15l1z15vrgq1wbl-zig-0.8.0/lib/zig/std/target/hexagon.zig
15698 14739991 1000000000 635ef2c505c0e3c1047d76c029e416c3 /gnu/store/lscf3a52z0773pr8g15l1z15vrgq1wbl-zig-0.8.0/lib/zig/std/target/mips.zig
1948 14739992 1000000000 c3fe2f2d560855b01774832997db8957 /gnu/store/lscf3a52z0773pr8g15l1z15vrgq1wbl-zig-0.8.0/lib/zig/std/target/msp430.zig
28765 14739994 1000000000 089ec06e7b23e2923ee1a541eb060f87 /gnu/store/lscf3a52z0773pr8g15l1z15vrgq1wbl-zig-0.8.0/lib/zig/std/target/powerpc.zig
46366 14739986 1000000000 822155f94806aca1e3d4db9a47d58400 /gnu/store/lscf3a52z0773pr8g15l1z15vrgq1wbl-zig-0.8.0/lib/zig/std/target/amdgpu.zig
15523 14739995 1000000000 c958b225bfcd8dd7a5113b4ebbff9883 /gnu/store/lscf3a52z0773pr8g15l1z15vrgq1wbl-zig-0.8.0/lib/zig/std/target/riscv.zig
13057 14739996 1000000000 f0f8f39668c57796294118ff11b42bfa /gnu/store/lscf3a52z0773pr8g15l1z15vrgq1wbl-zig-0.8.0/lib/zig/std/target/sparc.zig
76922 14739997 1000000000 180ee2b9faf573709f759a373eee0ed7 /gnu/store/lscf3a52z0773pr8g15l1z15vrgq1wbl-zig-0.8.0/lib/zig/std/target/spirv.zig
20648 14739998 1000000000 cc00a08483db70daf30685a8a8fef64c /gnu/store/lscf3a52z0773pr8g15l1z15vrgq1wbl-zig-0.8.0/lib/zig/std/target/systemz.zig
8786 14739993 1000000000 0b7e6545b1204543379e21f4a5741172 /gnu/store/lscf3a52z0773pr8g15l1z15vrgq1wbl-zig-0.8.0/lib/zig/std/target/nvptx.zig
982 14740000 1000000000 1366d71d08d0df3dad02655c0123782a /gnu/store/lscf3a52z0773pr8g15l1z15vrgq1wbl-zig-0.8.0/lib/zig/std/target/ve.zig
3792 14740001 1000000000 1a7e0d1e48de6eb78cb2c4fdc13cc567 /gnu/store/lscf3a52z0773pr8g15l1z15vrgq1wbl-zig-0.8.0/lib/zig/std/target/wasm.zig
46055 14740191 1000000000 8ed4514410032101ea0f912b77efa98e /gnu/store/lscf3a52z0773pr8g15l1z15vrgq1wbl-zig-0.8.0/lib/zig/std/zig/system.zig
18062 14739273 1000000000 47b8ead810ae2591f849d2b666ade71b /gnu/store/lscf3a52z0773pr8g15l1z15vrgq1wbl-zig-0.8.0/lib/zig/std/base64.zig
8691 14739313 1000000000 ffc1865d1f8501e3bec6283237ca8bb1 /gnu/store/lscf3a52z0773pr8g15l1z15vrgq1wbl-zig-0.8.0/lib/zig/std/crypto.zig
6585 14739356 1000000000 2e5b89da4a9582aa24b57d675a763896 /gnu/store/lscf3a52z0773pr8g15l1z15vrgq1wbl-zig-0.8.0/lib/zig/std/crypto/tlcsprng.zig
22016 14739722 1000000000 5fcff436c8333224b1aa456b51262996 /gnu/store/lscf3a52z0773pr8g15l1z15vrgq1wbl-zig-0.8.0/lib/zig/std/rand.zig
20877 14740198 1000000000 16728b997855668c36dc5c95f7cb58f6 /gnu/store/lscf3a52z0773pr8g15l1z15vrgq1wbl-zig-0.8.0/lib/zig/std/zig/system/x86.zig
10923 14739257 1000000000 d915ae94829a91247800004b5f4413cc /gnu/store/lscf3a52z0773pr8g15l1z15vrgq1wbl-zig-0.8.0/lib/zig/std/SemanticVersion.zig
3341 14740183 1000000000 0dc42e86e048e415947d7d7c783e73cb /gnu/store/lscf3a52z0773pr8g15l1z15vrgq1wbl-zig-0.8.0/lib/zig/std/zig/fmt.zig
18542 14739335 1000000000 c14f3c12196dd40358a1888c29f971e3 /gnu/store/lscf3a52z0773pr8g15l1z15vrgq1wbl-zig-0.8.0/lib/zig/std/crypto/gimli.zig
19879 14739376 1000000000 5a428437193287155eba272c06c6fdac /gnu/store/lscf3a52z0773pr8g15l1z15vrgq1wbl-zig-0.8.0/lib/zig/std/fifo.zig
1822 14739416 1000000000 7babc896d2b1b3e119979b19e335e1db /gnu/store/lscf3a52z0773pr8g15l1z15vrgq1wbl-zig-0.8.0/lib/zig/std/io/limited_reader.zig
19387 14739285 1000000000 053e333986b54bc10c56df23c0f63149 /gnu/store/lscf3a52z0773pr8g15l1z15vrgq1wbl-zig-0.8.0/lib/zig/std/c.zig
7280 14739294 1000000000 20d12bae1edafcf08ab4005b7d8bda30 /gnu/store/lscf3a52z0773pr8g15l1z15vrgq1wbl-zig-0.8.0/lib/zig/std/c/linux.zig
71635 14740199 1000000000 23ee3333a5dbb8a56771e37229e40a0c /gnu/store/lscf3a52z0773pr8g15l1z15vrgq1wbl-zig-0.8.0/lib/zig/std/zig/tokenizer.zig
55667 14739430 1000000000 91feab183766968b9b062a208734c37d /gnu/store/lscf3a52z0773pr8g15l1z15vrgq1wbl-zig-0.8.0/lib/zig/std/macho.zig
21315 14739718 1000000000 d477ff615228bc7577f8332fc1314e65 /gnu/store/lscf3a52z0773pr8g15l1z15vrgq1wbl-zig-0.8.0/lib/zig/std/pdb.zig
11334 14739302 1000000000 9a28b5cba8b4531decae0ad1c44bc2e4 /gnu/store/lscf3a52z0773pr8g15l1z15vrgq1wbl-zig-0.8.0/lib/zig/std/coff.zig
